…
``` r
tidy.words <- data.frame(words)
tidy.words <- as_tibble(tidy.words)
```

-   begin with `b`

``` r
tidy.words %>%
  mutate(begin.b = str_detect(words, pattern = "^b.*")) %>%
  filter(begin.b == "TRUE") %>%
  select(words)
```

    ## # A tibble: 58 x 1
    ##    words  
    ##    <fct>  
    ##  1 baby   
    ##  2 back   
    ##  3 bad    
    ##  4 bag    
    ##  5 balance
    ##  6 ball   
    ##  7 bank   
    ##  8 bar    
    ##  9 base   
    ## 10 basis  
    ## # ... with 48 more rows

-   contain `q`, `x`, or `z`

``` r
tidy.words %>%
  mutate(qxz = str_detect(words, pattern = "[qxz]")) %>%
  filter(qxz == "TRUE") %>%
  select(words)
```

    ## # A tibble: 30 x 1
    ##    words   
    ##    <fct>   
    ##  1 box     
    ##  2 equal   
    ##  3 exact   
    ##  4 example 
    ##  5 except  
    ##  6 excuse  
    ##  7 exercise
    ##  8 exist   
    ##  9 expect  
    ## 10 expense 
    ## # ... with 20 more rows

-   contain `th` or `ch`

``` r
tidy.words %>%
  mutate(thch = str_detect(words, "(t| c)h")) %>%
  filter(thch == "TRUE") %>%
  select(words)
```

    ## # A tibble: 44 x 1
    ##    words    
    ##    <fct>    
    ##  1 although 
    ##  2 another  
    ##  3 authority
    ##  4 birth    
    ##  5 both     
    ##  6 bother   
    ##  7 brother  
    ##  8 clothe   
    ##  9 either   
    ## 10 father   
    ## # ... with 34 more rows
…
-   start and end with the same letter

``` r
tidy.words %>%
  mutate(three.vowels = str_detect(words, "^([a-z])([a-z]*)\\1$")) %>%
  filter(three.vowels == "TRUE") %>%
  select(words)
```

    ## # A tibble: 36 x 1
    ##    words    
    ##    <fct>    
    ##  1 america  
    ##  2 area     
    ##  3 dad      
    ##  4 dead     
    ##  5 depend   
    ##  6 educate  
    ##  7 else     
    ##  8 encourage
    ##  9 engine   
    ## 10 europe   
    ## # ... with 26 more rows
…
    ## [1] 1008

``` r
as_tibble(str_extract(willi.s, "^(\\s\\s)([A-Z|\\s]+)([.])$")) %>%
  na.omit() %>%
  group_by(value) %>%
  summarize(n.lines = n()) %>%
  top_n(100, wt = n.lines) %>%
  arrange(desc(n.lines))
```

    ## # A tibble: 62 x 2
    ##    value              n.lines
    ##    <chr>                <int>
    ##  1 "      BENEDICK."      134
    ##  2 "      DON PEDRO."     132
    ##  3 "      CLAUDIO."       124
    ##  4 "      LEONATO."       119
    ##  5 "      BEATRICE."      105
    ##  6 "      DOGBERRY."       52
    ##  7 "      HERO."           44
    ##  8 "      DON JOHN."       39
    ##  9 "      BORACHIO."       37
    ## 10 "      MARGARET."       26
    ## # ... with 52 more rows
…
    ## [1] 32131

``` r
as_tibble(str_extract(willi.s, "(^\\s{2}[A-Z\\s]+\\.)|(^[A-Z\\s]+\\.)")) %>%
  na.omit() %>%
  group_by(value) %>%
  summarize(n.lines = n()) %>%
  top_n(100, wt = n.lines) %>%
  arrange(desc(n.lines))
```

    ## # A tibble: 100 x 2
    ##    value             n.lines
    ##    <chr>               <int>
    ##  1 HAMLET.               358
    ##  2 "  GLOUCESTER."       346
    ##  3 "  KING HENRY."       324
    ##  4 "  FALSTAFF."         283
    ##  5 "  OTHELLO."          274
    ##  6 "  IAGO."             272
    ##  7 "  DUKE."             266
    ##  8 "  KING."             240
    ##  9 "  KING RICHARD."     234
    ## 10 KING.                 218
    ## # ... with 90 more rows
…
``` r
crimes <- html_table(crime.tables [[1]], fill = TRUE, trim = TRUE, header = TRUE)
crimes = crimes[-1,]

colnames(crimes) <- c("State", "City", "population", "VCrate", "murders","rape", "robbery", "agg.assault", "PCrate", "burglary", "larceny.theft", "gta", "arson")

crimes <- crimes [,c(1,2,4,9)] %>%
  mutate( VCrate = parse_number(VCrate),
          PCrate = parse_number(PCrate)) %>%
  as.tibble()

crimes
```

    ## # A tibble: 100 x 4
    ##    State      City       VCrate PCrate
    ##    <chr>      <chr>       <dbl>  <dbl>
    ##  1 Alabama    Mobile3     740.   5454.
    ##  2 Alaska     Anchorage  1203.   5416.
    ##  3 Arizona    Chandler    259.   2330.
    ##  4 Arizona    Gilbert      85.5  1386.
    ##  5 Arizona    Glendale    488.   4530.
    ##  6 Arizona    Mesa        416.   2172.
    ##  7 Arizona    Phoenix     761.   3671.
    ##  8 Arizona    Scottsdale  157.   2172.
    ##  9 Arizona    Tucson      802.   5252.
    ## 10 California Anaheim     355.   2630.
    ## # ... with 90 more rows
…
imdb_top_50_gross <- tibble(
  title = titles,
  gross = parse_number(gross),
  imdbscore = imdbscores,
  metascore = parse_number(metascores)
  )
imdb_top_50_gross
```

    ## # A tibble: 50 x 4
    ##    title                          gross imdbscore metascore
    ##    <chr>                          <dbl>     <dbl>     <dbl>
    ##  1 Black Panther                   700.       7.4        88
    ##  2 Avengers: Infinity War          679.       8.5        68
    ##  3 Incredibles 2                   609.       7.8        80
    ##  4 Jurassic World: Fallen Kingdom  418.       6.2        51
    ##  5 Aquaman                         332.       7.4        55
    ##  6 Deadpool 2                      325.       7.8        66
    ##  7 The Grinch                      271.       6.3        51
    ##  8 Mission: Impossible - Fallout   220.       7.8        86
    ##  9 Ant-Man and the Wasp            217.       7.1        70
    ## 10 Solo: A Star Wars Story         214.       7           7
    ## # ... with 40 more rows
…
