…
``` r
manhattan_vio <- Violations %>% 
  filter(boro == "MANHATTAN", !is.na(score)) %>%  
  drop_na(score) %>%
  group_by(zipcode) %>%  
  summarize(median_score = median(score), n = n()) %>% 
  filter(n >= 50) 

manhattan_vio
```

    ## # A tibble: 51 x 3
    ##    zipcode median_score     n
    ##      <int>        <dbl> <int>
    ##  1   10001           15  7937
    ##  2   10002           18  8449
    ##  3   10003           17 12625
    ##  4   10004           14  2167
    ##  5   10005           17  1144
    ##  6   10006           17   928
    ##  7   10007           16  2185
    ##  8   10009           17  5620
    ##  9   10010           17  4385
    ## 10   10011           17  8205
    ## # ... with 41 more rows
…
``` r
regional_flights <- flights %>%
  mutate(month = month(date)) %>% 
  filter(month == 7) %>%
  left_join(airports, by = c("dest" = "iata")) %>%
  left_join(states, by = "state") %>%
  drop_na(region) %>%
  count(carrier, region) %>%
  group_by(carrier) %>%
  mutate(prop = n / sum(n))
regional_flights
```

    ## # A tibble: 34 x 4
    ## # Groups:   carrier [15]
    ##    carrier region      n  prop
    ##    <chr>   <chr>   <int> <dbl>
    ##  1 AA      south     273 1    
    ##  2 AS      west       31 1    
    ##  3 B6      NE         62 1    
    ##  4 CO      midwest   713 0.117
    ##  5 CO      NE       1060 0.174
    ##  6 CO      south    2073 0.340
    ##  7 CO      west     2246 0.369
    ##  8 DL      midwest    47 0.208
    ##  9 DL      south     179 0.792
    ## 10 EV      midwest    95 0.579
    ## # ... with 24 more rows
